Collate CPUE data
…
                         ifelse(SpecVal == "1" & DataType == "R",
                                HLNoAtLngt/(HaulDur/60),
                                
                                ifelse(SpecVal == "1" & DataType == "S",
                                       (HLNoAtLngt*SubFactor)/(HaulDur/60),
                                       
                                       ifelse(SpecVal == "zeroCatch", 0, NA)))))

# Plot and fill by zero catch
hlcod0 |>
  group_by(haul.id, Year) |>
  summarise(CPUEun_haul = sum(CPUEun)) |> 
  ungroup() |> 
  filter(!CPUEun_haul == 0)
#> # A tibble: 10,268 × 3
#>    haul.id                     Year CPUEun_haul
#>    <chr>                      <int>       <dbl>
#>  1 1993:1:DEN:DAN2:GRT:105:45  1993          37
#>  2 1993:1:DEN:DAN2:GRT:106:46  1993           2
#>  3 1993:1:DEN:DAN2:GRT:107:47  1993          34
#>  4 1993:1:DEN:DAN2:GRT:108:48  1993           5
#>  5 1993:1:DEN:DAN2:GRT:109:49  1993          24
#>  6 1993:1:DEN:DAN2:GRT:110:50  1993          40
#>  7 1993:1:DEN:DAN2:GRT:112:51  1993          32
#>  8 1993:1:DEN:DAN2:GRT:113:52  1993          12
#>  9 1993:1:DEN:DAN2:GRT:114:53  1993          16
#> 10 1993:1:DEN:DAN2:GRT:115:54  1993           9
#> # ℹ 10,258 more rows
…
# Do we still have 0 catches?
hlcodL |>
  group_by(haul.id, Year) |>
  summarise(CPUEun_haul = sum(CPUEun)) |> 
  ungroup() |> 
  filter(!CPUEun_haul == 0)
#> # A tibble: 10,268 × 3
#>    haul.id                     Year CPUEun_haul
#>    <chr>                      <int>       <dbl>
#>  1 1993:1:DEN:DAN2:GRT:105:45  1993          37
#>  2 1993:1:DEN:DAN2:GRT:106:46  1993           2
#>  3 1993:1:DEN:DAN2:GRT:107:47  1993          34
#>  4 1993:1:DEN:DAN2:GRT:108:48  1993           5
#>  5 1993:1:DEN:DAN2:GRT:109:49  1993          24
#>  6 1993:1:DEN:DAN2:GRT:110:50  1993          40
#>  7 1993:1:DEN:DAN2:GRT:112:51  1993          32
#>  8 1993:1:DEN:DAN2:GRT:113:52  1993          12
#>  9 1993:1:DEN:DAN2:GRT:114:53  1993          16
#> 10 1993:1:DEN:DAN2:GRT:115:54  1993           9
#> # ℹ 10,258 more rows
…
                         ifelse(SpecVal == "1" & DataType == "R",
                                HLNoAtLngt/(HaulDur/60),
                                
                                ifelse(SpecVal == "1" & DataType == "S",
                                       (HLNoAtLngt*SubFactor)/(HaulDur/60),
                                       
                                       ifelse(SpecVal == "zeroCatch", 0, NA)))))

# Plot and fill by zero catch
hlfle0 |>
  group_by(haul.id, Year) |>
  summarise(CPUEun_haul = sum(CPUEun)) |> 
  ungroup() |> 
  filter(!CPUEun_haul == 0)
#> # A tibble: 10,013 × 3
#>    haul.id                     Year CPUEun_haul
#>    <chr>                      <int>       <dbl>
#>  1 1993:1:DEN:DAN2:GRT:105:45  1993        2500
#>  2 1993:1:DEN:DAN2:GRT:106:46  1993           8
#>  3 1993:1:DEN:DAN2:GRT:107:47  1993          26
#>  4 1993:1:DEN:DAN2:GRT:108:48  1993          34
#>  5 1993:1:DEN:DAN2:GRT:109:49  1993           8
#>  6 1993:1:DEN:DAN2:GRT:110:50  1993           8
#>  7 1993:1:DEN:DAN2:GRT:114:53  1993           1
#>  8 1993:1:DEN:DAN2:GRT:115:54  1993           3
#>  9 1993:1:DEN:DAN2:GRT:117:56  1993         729
#> 10 1993:1:DEN:DAN2:GRT:11:6    1993          11
#> # ℹ 10,003 more rows
…
# Do we still have 0 catches?
hlfleL |>
  group_by(haul.id, Year) |>
  summarise(CPUEun_haul = sum(CPUEun)) |> 
  ungroup() |> 
  filter(!CPUEun_haul == 0)
#> # A tibble: 10,013 × 3
#>    haul.id                     Year CPUEun_haul
#>    <chr>                      <int>       <dbl>
#>  1 1993:1:DEN:DAN2:GRT:105:45  1993        2500
#>  2 1993:1:DEN:DAN2:GRT:106:46  1993           8
#>  3 1993:1:DEN:DAN2:GRT:107:47  1993          26
#>  4 1993:1:DEN:DAN2:GRT:108:48  1993          34
#>  5 1993:1:DEN:DAN2:GRT:109:49  1993           8
#>  6 1993:1:DEN:DAN2:GRT:110:50  1993           8
#>  7 1993:1:DEN:DAN2:GRT:114:53  1993           1
#>  8 1993:1:DEN:DAN2:GRT:115:54  1993           3
#>  9 1993:1:DEN:DAN2:GRT:117:56  1993         729
#> 10 1993:1:DEN:DAN2:GRT:11:6    1993          11
#> # ℹ 10,003 more rows
…
                         ifelse(SpecVal == "1" & DataType == "R",
                                HLNoAtLngt/(HaulDur/60),
                                
                                ifelse(SpecVal == "1" & DataType == "S",
                                       (HLNoAtLngt*SubFactor)/(HaulDur/60),
                                       
                                       ifelse(SpecVal == "zeroCatch", 0, NA)))))

# Plot and fill by zero catch
hlpla0 |>
  group_by(haul.id, Year) |>
  summarise(CPUEun_haul = sum(CPUEun)) |> 
  ungroup() |> 
  filter(!CPUEun_haul == 0)
#> # A tibble: 5,568 × 3
#>    haul.id                     Year CPUEun_haul
#>    <chr>                      <int>       <dbl>
#>  1 1993:1:DEN:DAN2:GRT:11:6    1993           3
#>  2 1993:1:DEN:DAN2:GRT:13:7    1993           1
#>  3 1993:1:DEN:DAN2:GRT:146:68  1993           1
#>  4 1993:1:DEN:DAN2:GRT:160:70  1993           2
#>  5 1993:1:DEN:DAN2:GRT:161:71  1993           2
#>  6 1993:1:DEN:DAN2:GRT:17:9    1993           1
#>  7 1993:1:DEN:DAN2:GRT:23:12   1993           1
#>  8 1993:1:DEN:DAN2:GRT:45:21   1993           2
#>  9 1993:1:DEN:DAN2:GRT:48:22   1993           1
#> 10 1993:1:DEN:DAN2:GRT:55:26   1993           3
#> # ℹ 5,558 more rows
…
# Do we still have 0 catches?
hlplaL |>
  group_by(haul.id, Year) |>
  summarise(CPUEun_haul = sum(CPUEun)) |> 
  ungroup() |> 
  filter(!CPUEun_haul == 0)
#> # A tibble: 5,568 × 3
#>    haul.id                     Year CPUEun_haul
#>    <chr>                      <int>       <dbl>
#>  1 1993:1:DEN:DAN2:GRT:11:6    1993           3
#>  2 1993:1:DEN:DAN2:GRT:13:7    1993           1
#>  3 1993:1:DEN:DAN2:GRT:146:68  1993           1
#>  4 1993:1:DEN:DAN2:GRT:160:70  1993           2
#>  5 1993:1:DEN:DAN2:GRT:161:71  1993           2
#>  6 1993:1:DEN:DAN2:GRT:17:9    1993           1
#>  7 1993:1:DEN:DAN2:GRT:23:12   1993           1
#>  8 1993:1:DEN:DAN2:GRT:45:21   1993           2
#>  9 1993:1:DEN:DAN2:GRT:48:22   1993           1
#> 10 1993:1:DEN:DAN2:GRT:55:26   1993           3
#> # ℹ 5,558 more rows
…
                         ifelse(SpecVal == "1" & DataType == "R",
                                HLNoAtLngt/(HaulDur/60),
                                
                                ifelse(SpecVal == "1" & DataType == "S",
                                       (HLNoAtLngt*SubFactor)/(HaulDur/60),
                                       
                                       ifelse(SpecVal == "zeroCatch", 0, NA)))))

# Plot and fill by zero catch
hldab0 |>
  group_by(haul.id, Year) |>
  summarise(CPUEun_haul = sum(CPUEun)) |> 
  ungroup() |> 
  filter(!CPUEun_haul == 0)
#> # A tibble: 1,930 × 3
#>    haul.id                     Year CPUEun_haul
#>    <chr>                      <int>       <dbl>
#>  1 1993:1:DEN:DAN2:GRT:11:6    1993           5
#>  2 1993:1:DEN:DAN2:GRT:13:7    1993           1
#>  3 1993:1:DEN:DAN2:GRT:14:8    1993           1
#>  4 1993:1:DEN:DAN2:GRT:161:71  1993           1
#>  5 1993:1:DEN:DAN2:GRT:162:72  1993           1
#>  6 1993:1:DEN:DAN2:GRT:17:9    1993           1
#>  7 1993:1:DEN:DAN2:GRT:1:1     1993           2
#>  8 1993:1:DEN:DAN2:GRT:3:2     1993           4
#>  9 1993:1:DEN:DAN2:GRT:4:3     1993           3
#> 10 1993:1:DEN:DAN2:GRT:52:24   1993           1
#> # ℹ 1,920 more rows
…
# Do we still have 0 catches?
hldabL |>
  group_by(haul.id, Year) |>
  summarise(CPUEun_haul = sum(CPUEun)) |> 
  ungroup() |> 
  filter(!CPUEun_haul == 0)
#> # A tibble: 1,930 × 3
#>    haul.id                     Year CPUEun_haul
#>    <chr>                      <int>       <dbl>
#>  1 1993:1:DEN:DAN2:GRT:11:6    1993           5
#>  2 1993:1:DEN:DAN2:GRT:13:7    1993           1
#>  3 1993:1:DEN:DAN2:GRT:14:8    1993           1
#>  4 1993:1:DEN:DAN2:GRT:161:71  1993           1
#>  5 1993:1:DEN:DAN2:GRT:162:72  1993           1
#>  6 1993:1:DEN:DAN2:GRT:17:9    1993           1
#>  7 1993:1:DEN:DAN2:GRT:1:1     1993           2
#>  8 1993:1:DEN:DAN2:GRT:3:2     1993           4
#>  9 1993:1:DEN:DAN2:GRT:4:3     1993           3
#> 10 1993:1:DEN:DAN2:GRT:52:24   1993           1
#> # ℹ 1,920 more rows
…
hlfleL |> mutate(length2 = replace_na(length_cm, -9)) |> group_by(length2) |> distinct(CPUEun) |> arrange(CPUEun)
#> # A tibble: 12,344 × 2
#> # Groups:   length2 [253]
#>    length2 CPUEun
#>      <dbl>  <dbl>
#>  1    -9    0    
#>  2    19    0.667
#>  3    21    0.667
#>  4    35    0.667
#>  5    39    0.667
#>  6    40    0.667
#>  7    42    0.667
#>  8    27    0.870
#>  9    32    0.870
#> 10    37.5  0.870
#> # ℹ 12,334 more rows
…
hlplaL |> mutate(length2 = replace_na(length_cm, -9)) |> group_by(length2) |> distinct(CPUEun) |> arrange(CPUEun)
#> # A tibble: 2,890 × 2
#> # Groups:   length2 [159]
#>    length2 CPUEun
#>      <dbl>  <dbl>
#>  1      -9  0    
#>  2      31  0.667
#>  3      32  0.667
#>  4      34  0.667
#>  5      44  0.667
#>  6      24  0.968
#>  7      33  0.968
#>  8      32  0.984
#>  9      36  0.984
#> 10      33  0.984
#> # ℹ 2,880 more rows
…
hldabL |> mutate(length2 = replace_na(length_cm, -9)) |> group_by(length2) |> distinct(CPUEun) |> arrange(CPUEun)
#> # A tibble: 1,014 × 2
#> # Groups:   length2 [36]
#>    length2 CPUEun
#>      <dbl>  <dbl>
#>  1      -9  0    
#>  2      22  0.667
#>  3      14  1    
#>  4      22  1    
#>  5      21  1    
#>  6      25  1    
#>  7      27  1    
#>  8      23  1    
#>  9      29  1    
#> 10      19  1    
#> # ℹ 1,004 more rows
…
# Flounder 
hlfleL2 |> filter(Country == "LAT") |> distinct(Year) |> arrange(Year)
#> # A tibble: 28 × 1
#>     Year
#>    <int>
#>  1  1993
#>  2  1994
#>  3  1995
#>  4  1996
#>  5  1997
#>  6  1998
#>  7  1999
#>  8  2000
#>  9  2001
#> 10  2002
#> # ℹ 18 more rows
…
# Because it's size-based cpue, I want the data frame to be "full", so that each haul has every size, even if all are empty. That means I can define a size group, group by and sum for each haul, even if there aren't any sizes caught. Now I only have lengths with catches, and no lengths if catch is zero.
datcod |> group_by(haul.id) |> summarise(n_size = length(unique(length_cm))) |> distinct(n_size, .keep_all = TRUE)
#> group_by: one grouping variable (haul.id)
#> summarise: now 9,373 rows and 2 columns, ungrouped
#> distinct: removed 9,304 rows (99%), 69 rows remaining
#> # A tibble: 69 × 2
#>    haul.id                  n_size
#>    <chr>                     <int>
#>  1 1993:1:GFR:SOL:H20:21:1      23
#>  2 1993:1:GFR:SOL:H20:22:32      3
#>  3 1993:1:GFR:SOL:H20:23:31      4
#>  4 1993:1:GFR:SOL:H20:24:30      6
#>  5 1993:1:GFR:SOL:H20:26:3      31
#>  6 1993:1:GFR:SOL:H20:27:27     10
#>  7 1993:1:GFR:SOL:H20:28:24     36
#>  8 1993:1:GFR:SOL:H20:29:29      7
#>  9 1993:1:GFR:SOL:H20:30:28      2
#> 10 1993:1:GFR:SOL:H20:31:25     29
#> # ℹ 59 more rows
…
#> 2 2.177960458 1993 54.5167 14.15       1     GFR     2 1993:1:GFR:SOL:H20:23:31
#> 3 3.046329990 1993 54.5167 14.15       1     GFR     2 1993:1:GFR:SOL:H20:23:31
#> 4 0.000000000 1993 54.5167 14.15       1     GFR     2 1993:1:GFR:SOL:H20:23:31
#>                         IDx ices_rect sub_div length_cm species
#> 1 1993.1.GFR.06S1.H20.23.31      38G4      24         6     cod
#> 2 1993.1.GFR.06S1.H20.23.31      38G4      24        35     cod
#> 3 1993.1.GFR.06S1.H20.23.31      38G4      24        39     cod
#> 4 1993.1.GFR.06S1.H20.23.31      38G4      24         0     cod
datcod |> group_by(haul.id) |> mutate(tot_dens = sum(density)) |> ungroup() |> distinct(haul.id, .keep_all = TRUE) |> filter(tot_dens == 0)
#> group_by: one grouping variable (haul.id)
#> mutate (grouped): new variable 'tot_dens' (double) with 8,230 unique values and 0% NA
#> ungroup: no grouping variables
#> distinct: removed 210,417 rows (96%), 9,373 rows remaining
#> filter: removed 8,239 rows (88%), 1,134 rows remaining
#> # A tibble: 1,134 × 14
#>    density  year   lat   lon quarter Country month haul.id       IDx   ices_rect
#>      <dbl> <int> <dbl> <dbl>   <int> <chr>   <int> <chr>         <chr> <chr>    
#>  1       0  1993  55    17.5       1 GFR         2 1993:1:GFR:S… 1993… 39G7     
#>  2       0  1993  57.9  19.4       1 SWE         3 1993:1:SWE:A… 1993… 44G9     
#>  3       0  1993  57.1  17.9       3 SWE         8 1993:3:SWE:A… 1993… 43G7     
#>  4       0  1993  57.1  18.9       3 SWE         8 1993:3:SWE:A… 1993… 43G8     
#>  5       0  1993  57.1  18.8       3 SWE         8 1993:3:SWE:A… 1993… 43G8     
#>  6       0  1993  57.2  18.9       3 SWE         8 1993:3:SWE:A… 1993… 43G8     
#>  7       0  1993  57.3  17.9       3 SWE         8 1993:3:SWE:A… 1993… 43G7     
#>  8       0  1993  57.4  16.9       3 SWE         8 1993:3:SWE:A… 1993… 43G6     
#>  9       0  1993  57.4  19.2       3 SWE         8 1993:3:SWE:A… 1993… 43G9     
#> 10       0  1993  57.5  17.1       3 SWE         8 1993:3:SWE:A… 1993… 43G7     
#> # ℹ 1,124 more rows
#> # ℹ 4 more variables: sub_div <chr>, length_cm <dbl>, species <chr>,
#> #   tot_dens <dbl>
…
# Bind_rows these data with datcod
nrow(datcod) + nrow(ex_df)
#> [1] 1199744

unique(is.na(datcod$density))
#> [1] FALSE

datcod <- bind_rows(datcod, ex_df) |> arrange(haul.id, length_cm)
nrow(datcod)
#> [1] 1199744
datcod
#> # A tibble: 1,199,744 × 14
#>    density  year   lat   lon quarter Country month haul.id       IDx   ices_rect
#>      <dbl> <int> <dbl> <dbl>   <int> <chr>   <int> <chr>         <chr> <chr>    
#>  1       0  1993  54.7    13       1 GFR         2 1993:1:GFR:S… 1993… 38G3     
#>  2      NA  1993  54.7    13       1 GFR         2 1993:1:GFR:S… 1993… 38G3     
#>  3      NA  1993  54.7    13       1 GFR         2 1993:1:GFR:S… 1993… 38G3     
#>  4      NA  1993  54.7    13       1 GFR         2 1993:1:GFR:S… 1993… 38G3     
#>  5      NA  1993  54.7    13       1 GFR         2 1993:1:GFR:S… 1993… 38G3     
#>  6      NA  1993  54.7    13       1 GFR         2 1993:1:GFR:S… 1993… 38G3     
#>  7      NA  1993  54.7    13       1 GFR         2 1993:1:GFR:S… 1993… 38G3     
#>  8      NA  1993  54.7    13       1 GFR         2 1993:1:GFR:S… 1993… 38G3     
#>  9      NA  1993  54.7    13       1 GFR         2 1993:1:GFR:S… 1993… 38G3     
#> 10      NA  1993  54.7    13       1 GFR         2 1993:1:GFR:S… 1993… 38G3     
#> # ℹ 1,199,734 more rows
#> # ℹ 4 more variables: sub_div <chr>, length_cm <dbl>, species <chr>,
#> #   haul.id.size <chr>
…
nrow(datcod)
#> [1] 1199744
length(unique(datcod$haul.id))
#> [1] 9373
t |> drop_na(haul_density)
#> drop_na: no rows removed
#> # A tibble: 9,373 × 2
#>    haul.id                  haul_density
#>    <chr>                           <dbl>
#>  1 1993:1:GFR:SOL:H20:21:1        157.  
#>  2 1993:1:GFR:SOL:H20:22:32        10.3 
#>  3 1993:1:GFR:SOL:H20:23:31         5.23
#>  4 1993:1:GFR:SOL:H20:24:30        19.4 
#>  5 1993:1:GFR:SOL:H20:25:2        810.  
#>  6 1993:1:GFR:SOL:H20:26:3        363.  
#>  7 1993:1:GFR:SOL:H20:27:27        23.2 
#>  8 1993:1:GFR:SOL:H20:28:24      2302.  
#>  9 1993:1:GFR:SOL:H20:29:29        30.7 
#> 10 1993:1:GFR:SOL:H20:30:28         6.84
#> # ℹ 9,363 more rows
nrow(t)
#> [1] 9373
t |> filter(!haul_density == 0)
#> filter: removed 1,134 rows (12%), 8,239 rows remaining
#> # A tibble: 8,239 × 2
#>    haul.id                  haul_density
#>    <chr>                           <dbl>
#>  1 1993:1:GFR:SOL:H20:21:1        157.  
#>  2 1993:1:GFR:SOL:H20:22:32        10.3 
#>  3 1993:1:GFR:SOL:H20:23:31         5.23
#>  4 1993:1:GFR:SOL:H20:24:30        19.4 
#>  5 1993:1:GFR:SOL:H20:25:2        810.  
#>  6 1993:1:GFR:SOL:H20:26:3        363.  
#>  7 1993:1:GFR:SOL:H20:27:27        23.2 
#>  8 1993:1:GFR:SOL:H20:28:24      2302.  
#>  9 1993:1:GFR:SOL:H20:29:29        30.7 
#> 10 1993:1:GFR:SOL:H20:30:28         6.84
#> # ℹ 8,229 more rows
…
